
strategic_region={
	id=217
	name="STRATEGICREGION_217"
	provinces={
		232 275 302 313 328 340 356 367 384 396 413 437 457 471 473 510 534 558 580 3199 3291 3318 3332 3346 3389 3469 3492 3504 3527 3554 3566 3567 3580 6230 6254 6304 6317 6341 6355 6369 6398 6428 6432 6477 6481 6494 6517 6543 6553 6577 6587 6591 6603 9245 9260 9312 9328 9339 9355 9367 9384 9394 9411 9422 9424 9448 9449 9489 9518 9529 9542 9552 9579 11214 11227 11244 11283 11296 11310 11323 11337 11351 11368 11381 11396 11412 11436 11439 11475 11500 11526 11540 
	}
	weather={
		period={
			between={ 0.0 30.0 }
			temperature={ -25.0 -10.0 }
			temperature_day_night={ 5.0 -5.0 }
			no_phenomenon=0.100
			rain_light=0.100
			rain_heavy=0.050
			snow=0.440
			blizzard=0.140
			arctic_water=0.000
			mud=0.250
			sandstorm=0.000
			min_snow_level=0.100
		}
		period={
			between={ 0.1 27.1 }
			temperature={ -25.0 -5.0 }
			temperature_day_night={ 0.0 -5.0 }
			no_phenomenon=0.100
			rain_light=0.100
			rain_heavy=0.050
			snow=0.500
			blizzard=0.220
			arctic_water=0.000
			mud=0.250
			sandstorm=0.000
			min_snow_level=0.100
		}
		period={
			between={ 0.2 30.2 }
			temperature={ -10.0 5.0 }
			temperature_day_night={ 0.0 -5.0 }
			no_phenomenon=0.550
			rain_light=0.100
			rain_heavy=0.050
			snow=0.300
			blizzard=0.100
			arctic_water=0.000
			mud=0.600
			sandstorm=0.000
			min_snow_level=0.000
		}
		period={
			between={ 0.3 29.3 }
			temperature={ 0.0 16.0 }
			temperature_day_night={ 7.0 -7.0 }
			no_phenomenon=0.600
			rain_light=0.200
			rain_heavy=0.100
			snow=0.150
			blizzard=0.000
			arctic_water=0.000
			mud=1.600
			sandstorm=0.000
			min_snow_level=0.000
		}
		period={
			between={ 0.4 30.4 }
			temperature={ 7.0 19.0 }
			temperature_day_night={ 6.0 -6.0 }
			no_phenomenon=0.600
			rain_light=0.200
			rain_heavy=0.100
			snow=0.000
			blizzard=0.000
			arctic_water=0.000
			mud=1.600
			sandstorm=0.000
			min_snow_level=0.000
		}
		period={
			between={ 0.5 29.5 }
			temperature={ 11.0 22.0 }
			temperature_day_night={ 8.0 -8.0 }
			no_phenomenon=0.600
			rain_light=0.250
			rain_heavy=0.150
			snow=0.000
			blizzard=0.000
			arctic_water=0.000
			mud=1.600
			sandstorm=0.000
			min_snow_level=0.000
		}
		period={
			between={ 0.6 30.6 }
			temperature={ 13.0 24.0 }
			temperature_day_night={ 8.0 -8.0 }
			no_phenomenon=0.700
			rain_light=0.250
			rain_heavy=0.150
			snow=0.000
			blizzard=0.000
			arctic_water=0.000
			mud=1.600
			sandstorm=0.000
			min_snow_level=0.000
		}
		period={
			between={ 0.7 30.7 }
			temperature={ 12.0 23.0 }
			temperature_day_night={ 8.0 -8.0 }
			no_phenomenon=0.800
			rain_light=0.250
			rain_heavy=0.150
			snow=0.000
			blizzard=0.000
			arctic_water=0.000
			mud=1.600
			sandstorm=0.000
			min_snow_level=0.000
		}
		period={
			between={ 0.8 29.8 }
			temperature={ 7.0 17.0 }
			temperature_day_night={ 8.0 -8.0 }
			no_phenomenon=0.100
			rain_light=0.550
			rain_heavy=0.450
			snow=0.000
			blizzard=0.000
			arctic_water=0.000
			mud=2.600
			sandstorm=0.000
			min_snow_level=0.000
		}
		period={
			between={ 0.9 30.9 }
			temperature={ -5.0 10.0 }
			temperature_day_night={ 8.0 -8.0 }
			no_phenomenon=0.100
			rain_light=0.600
			rain_heavy=0.500
			snow=0.150
			blizzard=0.000
			arctic_water=0.000
			mud=2.600
			sandstorm=0.000
			min_snow_level=0.000
		}
		period={
			between={ 0.10 14.10 }
			temperature={ -10.0 5.0 }
			temperature_day_night={ 0.0 -5.0 }
			no_phenomenon=0.600
			rain_light=0.150
			rain_heavy=0.100
			snow=0.200
			blizzard=0.000
			arctic_water=0.000
			mud=0.500
			sandstorm=0.000
			min_snow_level=0.000
		}
		period={
			between={ 15.10 29.10 }
			temperature={ -10.0 0.0 }
			temperature_day_night={ 0.0 -5.0 }
			no_phenomenon=0.100
			rain_light=0.100
			rain_heavy=0.150
			snow=0.400
			blizzard=0.200
			arctic_water=0.000
			mud=0.500
			sandstorm=0.000
			min_snow_level=0.100
		}
		period={
			between={ 0.11 30.11 }
			temperature={ -15.0 -5.0 }
			temperature_day_night={ 0.0 -5.0 }
			no_phenomenon=0.100
			rain_light=0.130
			rain_heavy=0.070
			snow=0.600
			blizzard=0.200
			arctic_water=0.000
			mud=0.400
			sandstorm=0.000
			min_snow_level=0.200
		}
	}
}
