bookmarks = {
	bookmark = {
		name = "GATHERING_STORM_NAME"
		desc = "GATHERING_STORM_DESC"
		date = 1936.1.1.12
		picture = "GFX_select_date_1936"
		default_country = "GER"
		default = yes

		"FRA"={
			history = "FRA_GATHERING_STORM_DESC"
			ideology = democratic
			ideas = {
				FRA_victors_of_wwi
				FRA_disjointed_government
				FRA_protected_by_the_maginot_line
			}
			focuses = {
				FRA_initiate_government_reform
				FRA_support_status_quo
				FRA_army_reform 
			}
		}
		"USA"={
			history = "USA_GATHERING_STORM_DESC"
			ideology = democratic
			ideas = {
				home_of_the_free
				great_depression
				undisturbed_isolation
			}
			focuses = {
				USA_two_ocean_navy_act 
				USA_lend_lease_act
				USA_the_giant_wakes 
			}
		}
		"ENG"={
			history = "ENG_GATHERING_STORM_DESC"
			ideology = democratic
			ideas = {
				stiff_upper_lip
				ENG_the_war_to_end_all_wars
				george_v
			}
			focuses = {
				general_rearmament_focus 
				fighter_command_focus 
				tizard_mission_focus
			}
		}

		"GER"={
			history = "GER_GATHERING_STORM_DESC"
			ideology = fascism
			ideas = {
				GER_mefo_bills_1 
				sour_loser
				general_staff
			}
			focuses = {
				GER_anschluss
				GER_danzig_or_war
				GER_ussr_war_goal
			}
		}
		"ITA"={
			history = "ITA_GATHERING_STORM_DESC"
			ideology = fascism
			ideas = {
				vittoria_mutilata
				victor_emmanuel
			}
			focuses = {
				ITA_mare_nostrum
				ITA_slovenia_dalmatia_claims 
				ITA_pact_of_steel
			}
		}
		"JAP"={
			history = "JAP_GATHERING_STORM_DESC"
			ideology = fascism
			ideas = {
				state_shintoism
				JAP_zaibatsus
				JAP_militarism
			}
			focuses = {
				JAP_strike_on_the_southern_resource_area
				JAP_intervene_in_china
				JAP_the_zero
			}
		}
		"SOV"={
			history = "SOV_GATHERING_STORM_DESC"
			ideology = communism
			ideas = {
				trotskyite_plot
				home_of_revolution
			}
			focuses = {
				SOV_great_purge
				SOV_defense_of_stalingrad
				SOV_proclaim_victory_over_fascism 
			}
		}

		"---"={
			history = "OTHER_GATHERING_STORM_DESC"
		}


		# minors from DLC ####
		"CAN"={
			minor = yes
			history = "CAN_GATHERING_STORM_DESC"
			ideology = democratic
			ideas = {
				CAN_great_depression_1
				CAN_conscription_crisis
			}
			focuses = {
			}
		}
		"AST"={
			minor = yes
			history = "AST_GATHERING_STORM_DESC"
			ideology = democratic
			ideas = {
				AST_great_depression_1
			}
			focuses = {
			}
		}
		"NZL"={
			minor = yes
			history = "NZL_GATHERING_STORM_DESC"
			ideology = democratic
			ideas = {

			}
			focuses = {
				NZL_bob_semple_tank
				NZL_maori_volunteers
			}
		}
		"SAF"={
			minor = yes
			history = "SAF_GATHERING_STORM_DESC"
			ideology = democratic
			ideas = {
				SAF_ossewabrandwag
				SAF_history_of_segregation
			}
			focuses = {
				SAF_secure_interests_in_africa
			}
		}
		"RAJ"={
			minor = yes
			history = "RAJ_GATHERING_STORM_DESC"
			ideology = neutrality
			ideas = {
				RAJ_agrarian_society
				RAJ_princely_states
			}
			focuses = {
				RAJ_indian_gurkhas
				RAJ_the_smiling_buddha
			}
		}

		"HUN"={
			minor = yes
			history = "HUN_GATHERING_STORM_DESC"
			ideology = neutrality
			ideas = {
				HUN_treaty_of_triannon
			}
			focuses = {
				HUN_secret_rearmament
				HUN_renounce_the_treaty_of_trianon
			}
		}

		"ROM"={
			minor = yes
			history = "ROM_GATHERING_STORM_DESC"
			ideology = neutrality
			ideas = {
				ROM_king_carol_ii_hedonist
				neutrality_idea
			}
			focuses = {
				ROM_institute_royal_dictatorship
				ROM_preserve_greater_romania
			}
		}

		effect = {
			randomize_weather = 22345 # <- Obligatory in every bookmark !
			#123 = { rain_light = yes }
		}
	}
}
