ideas = {

	country = {
		sisu = {

			allowed = {
				always = no
			}

			allowed_civil_war = {
				NOT = {
					has_government = communism
				}
			}

			removal_cost = -1

			modifier = {
				acclimatization_cold_climate_gain_factor = 10.0
				army_morale_factor = 0.10
				army_core_attack_factor = 0.35
				army_core_defence_factor = 0.35
			}
		}
		no_finnish_justification = {

			allowed = {
				always = no
			}

			allowed_civil_war = {
				always = yes
			}

			removal_cost = -1
			picture = generic_pp_unity_bonus

			modifier = {
				generate_wargoal_tension = 2.00
			}
		}

	}

	political_advisor = {


		FIN_ralf_torngren = {

			picture = generic_political_advisor_europe_1

			allowed = {
				original_tag = FIN
			}

			traits = { ideological_crusader }
		}

		FIN_ake_henrik_gartz = {

			picture = generic_political_advisor_europe_2

			allowed = {
				original_tag = FIN
			}

			traits = { captain_of_industry }
		}

		FIN_antti_hackzell = {

			picture = generic_political_advisor_europe_3

			allowed = {
				original_tag = FIN
			}

			traits = { silent_workhorse }
		}
	}
	theorist = {

		FIN_akseli_anttila = {

			picture = generic_army_europe_2

			allowed = {
				original_tag = FIN
			}


			research_bonus = {
				land_doctrine = 0.1
			}

			traits = { military_theorist }
		}

		FIN_vaino_valve = {

			picture = generic_navy_europe_2

			allowed = {
				original_tag = FIN
			}



			research_bonus = {
				naval_doctrine = 0.1
			}

			traits = { naval_theorist }
		}
	}
	# MILITARY
	army_chief = {


		FIN_lauri_malmberg = {

			picture = generic_army_europe_2

			allowed = {
				original_tag = FIN
			}



			traits = { army_chief_drill_2 }

			ai_will_do = {
				factor = 1
			}
		}

		FIN_hugo_osterman = {

			picture = generic_army_europe_2

			allowed = {
				original_tag = FIN
			}



			traits = { army_chief_offensive_2 }

			ai_will_do = {
				factor = 1
			}
		}

		FIN_carl_mannerheim = {

			picture = generic_army_europe_4

			allowed = {
				original_tag = FIN
			}



			traits = { army_chief_defensive_3 }

			ai_will_do = {
				factor = 1
			}
		}
	}

	air_chief = {


		FIN_jarl_lundqvist = {

			picture = generic_air_europe_3

			allowed = {
				original_tag = FIN
			}



			traits = { air_chief_all_weather_2 }

			ai_will_do = {
				factor = 1
			}
		}

		FIN_olavi_sarko = {

			picture = generic_air_europe_1

			allowed = {
				original_tag = FIN
			}



			traits = { air_chief_ground_support_2 }

			ai_will_do = {
				factor = 1
			}
		}
	}

	navy_chief = {

		FIN_eero_rahola = {

			picture = generic_navy_europe_1

			allowed = {
				original_tag = FIN
			}



			traits = { navy_chief_decisive_battle_2 }

			ai_will_do = {
				factor = 1
			}
		}
	}

	high_command = {
		FIN_karl_oesch = {


			allowed = {
				original_tag = FIN
			}

			picture = generic_army_europe_3

			traits = { army_regrouping_1 }

			ai_will_do = {
				factor = 1
			}
		}

		FIN_valio_porvari = {


			allowed = {
				original_tag = FIN
			}

			picture = generic_air_europe_1

			traits = { air_air_superiority_2 }

			ai_will_do = {
				factor = 1
			}
		}

		FIN_lauri_tiainen = {


			allowed = {
				original_tag = FIN
			}

			picture = generic_army_europe_1

			traits = { army_commando_3 }

			ai_will_do = {
				factor = 1
			}
		}

		FIN_harald_ohquist = {


			allowed = {
				original_tag = FIN
			}

			picture = generic_army_europe_5

			traits = { army_regrouping_2 }

			ai_will_do = {
				factor = 1
			}
		}
	}

	# TECHNOLOGY

	naval_manufacturer = {

		designer = yes

		crichton = {

			picture = generic_naval_manufacturer_1


			allowed = {
				original_tag = FIN
			}

			research_bonus = {
				naval_equipment = 0.15
			}

			# submarine and defence ship production

			traits = { naval_manufacturer }
		}
	}

	aircraft_manufacturer = {

		designer = yes


		valtion_lentokonetehdas = {

			picture = generic_air_manufacturer_3


			allowed = {
				original_tag = FIN
			}

			research_bonus = {
				air_equipment = 0.15
			}

			traits = { light_aircraft_manufacturer }

			# assembled Junkers, fast bombers

			ai_will_do = {
				factor = 1
			}
		}
	}
}
