
state={
	id=267
	name="STATE_267" # Kabul
	manpower = 1
	
	state_category = town
	
	resources={
	}
	history={
		owner = AFG
		add_core_of = AFG
		buildings = {
			infrastructure = 2
		}
		victory_points = {
			10737 5 
		}
	}

	provinces={
		5082 7448 7519 7584 7916 7984 10476 10737 10781 10826 10852 10896 12248 12314 12653 12769 12831 12877 
	}
}
