state=
{
	id=314
	name="STATE_314"
	manpower = 1
	
	
	state_category = town
	
	history=
	{
		owner = ELS
		buildings = {
			infrastructure = 4
			air_base = 1
			12823 = {
				naval_base = 1
			}
		}
		add_core_of = ELS
		victory_points = {
			12823 3
		}

	}
	provinces={
		12823 13093 
	}
}
