state= {
	id=315
	name="STATE_315"
	manpower = 1
	
	state_category = town

	history= {
		owner = CUB
		buildings = {
			infrastructure = 4
			air_base = 1
			7622 = {
				naval_base = 3
			}
			1550 = {
				naval_base = 1
			}
		}
		add_core_of = CUB
		victory_points = {
			7622 5 
		}
		victory_points = {
			7590 1
		}

	}
	provinces={
		1550 4476 4600 7451 7546 7590 7622 10374 10498 12347
	}
}
