
state={
	id=448
	name="STATE_448"
	manpower = 469136
	
	state_category = town

	history={
		owner = ITA
		
		victory_points = {
			1149 400 
		}
		buildings = {
			infrastructure = 3
			industrial_complex = 2
			air_base = 10
			1149 = {
				naval_base = 11
			}
		}
	}

	provinces={
		1149 1189 4194 7066 7209 9980 12039 
	}
}
