
state={
	id=482
	name="STATE_482"
	manpower = 1

	state_category = rural

	history={
		owner = MEX
		add_core_of = MEX
	}

	provinces={
		2037 4898 7935 8097 10809 10830 10916 12745 12827 12850 12897
	}

}
