
state={
	id=497
	name="STATE_497"
	manpower = 1
	
	state_category = rural
	
	

	history={
		owner = BRA
		buildings = {
			infrastructure = 3
			air_base = 1
			12853 = {
				naval_base = 2
			}
		}
		add_core_of = BRA
		victory_points = {
			12853 1 
		}

	}

	provinces={
		2150 2214 2228 5153 5204 5218 5220 10874 10984 12853 12913 12933 12947 12999 
	}
}
