state={
	id=515
	name="STATE_515"
	
	state_category = wasteland
	impassable = yes

	history={
		owner = FRA
		buildings = {
			infrastructure = 0

		}

	}

	provinces={
		1956 4913 7939 8028 8128 10758 10780 10805 10917
	}
	manpower=1482744
	buildings_max_level_factor=1.000
}
