state=
{
	id=550
	name="STATE_550"
	manpower = 600600
	
	state_category = rural
	
	history=
	{
		owner = ITA
		victory_points = {
			12766 50
		}
		buildings = {
			infrastructure = 3
			air_base = 3
			12766 = {
				naval_base = 3
			}
		}
	}
	provinces={
		5017 5047 5091 8043 12723 12766
	}
}
