
state={
	id=614
	name="STATE_614"

	history={
		owner = CHI
		add_core_of = CHI
		add_core_of = PRC
		buildings = {
			infrastructure = 4

		}
		1938.10.25 = {
			controller = JAP

		}

	}

	provinces={
		1169 1188 4058 4114 4144 7074 7092 7129 11933 12062 
	}
	manpower=18434900
	buildings_max_level_factor=1.000
	state_category=town
}
