
state={
	id=64
	name="STATE_64"
	manpower = 7265029
	buildings_max_level_factor = 1

	state_category = megalopolis


	history={
		owner = GER
		victory_points = {
			6521 50 
		}
		victory_points = {
			3522 5 
		}
		buildings = {
			infrastructure = 8
			arms_factory = 6
			industrial_complex = 3
			anti_air_building = 2
			air_base = 10

		}
		add_core_of = GER

		1939.1.1 = {
			buildings = {
				air_base = 10
				anti_air_building = 5
				arms_factory = 10
				industrial_complex = 7
			}
		}
	}

	provinces={
		375 3367 3499 3522 6487 6521 9428 9456 9560 11219 11359 11444 11505 9496 3207 13268 13269 13270 13271
	}
}
