state={
	id=675
	name="STATE_675"
	manpower = 122093
	
	state_category = wasteland

	history={
		owner = IRQ
		buildings = {
			infrastructure = 1
		}
		add_core_of = IRQ
	}
	
	provinces={
		1631 4951 10744 12413 12879 13310 13311 13312 13313 13314 13315 13316 13317 13318 
	}
}
