
state={
	id=750
	name="STATE_750"

	history={
		owner = CHI
		add_core_of = CHI
		add_core_of = PRC
		buildings = {
			infrastructure = 4
			industrial_complex = 2
			arms_factory = 1
			air_base = 2

		}
		victory_points = {
			7101 10 
		}
		1939.1.1 = {
			buildings = {
				industrial_complex = 2
				infrastructure = 6
				air_base = 3
				arms_factory = 1

			}

		}

	}

	provinces={
		1474 4041 4480 4896 5030 7101 7201 7279 7434 7521 7577 7665 10006 10304 10335 10757 10822 12017 12053 12086 12414 
	}
	manpower=8000000
	buildings_max_level_factor=1.000
	state_category=town
}
