state={
	id=788
	name="STATE_788"
	provinces={
		266 3351 3380 6375 6402 9327 9346 9372 9398 11245 11386 
	}
	manpower=250000
	state_category = rural
	history={
		owner = GER
		buildings = {
			infrastructure = 4
		}
		add_core_of = GER 
	}
	buildings_max_level_factor=1.000
}
