# All infantry equipment

equipments = {

	infantry_equipment = {
		is_archetype = yes
		picture = archetype_infantry_equipment		
		is_buildable = no
		type = infantry
		group_by = archetype
		
		interface_category = interface_category_land
		
		active = yes
		
		#Misc Abilities
		reliability = 0.9
		maximum_speed = 3.0

		#Defensive Abilities
		defense = 13
		breakthrough = 0.5 
		hardness = 0
		armor_value = 0

		#Offensive Abilities
		soft_attack = 1.25
		hard_attack = 0.4
		ap_attack = 1
		air_attack = 0

		#Space taken in convoy
		lend_lease_cost = 0.10
		
		build_cost_ic = 0.4
		resources = {
			steel = 2
		}
		
	}

	infantry_equipment_0 = {
		archetype = infantry_equipment
		active = yes
		priority = 05
		visual_level = 0
	}



	# Regular infantry  1936
	infantry_equipment_1 = {
		archetype = infantry_equipment
		parent = infantry_equipment_0
		priority = 10
		visual_level = 1

		#Defensive Abilities
		defense = 18.5
		breakthrough = 2.0 

		#Offensive Abilities
		soft_attack = 3.0
		hard_attack = 0.5
		ap_attack = 4
		air_attack = 0

		build_cost_ic = 0.5
		resources = {
			steel = 2
		}
	}

	# Improved weapons  ~1939
	infantry_equipment_2 = {
		archetype = infantry_equipment
		parent = infantry_equipment_1
		priority = 10
		visual_level = 2
		
		#Defensive Abilities
		defense = 23.75
		breakthrough = 4.00

		#Offensive Abilities
		soft_attack = 5.0 
		hard_attack = 1.0
		ap_attack = 4
		air_attack = 0
		
		build_cost_ic = 0.6
		resources = {
			steel = 2
		}
	}
	
	# Advanced weapons  ~1942
	infantry_equipment_3 = {
		archetype = infantry_equipment
		parent = infantry_equipment_2
		priority = 10
		visual_level = 3
		
		#Defensive Abilities
		defense = 28.5
		breakthrough = 6.50

		#Offensive Abilities
		soft_attack = 7.5 
		hard_attack = 1.4
		ap_attack = 4
		air_attack = 0
		
		reliability = 0.8
		build_cost_ic = 0.7
		resources = {
			steel = 3
		}
	}
}
