﻿division_template = {
	name = "Infantry Division"  	# Standard formation for frontline divisions

	regiments = {
		infantry = { x = 0 y = 0 }
		infantry = { x = 0 y = 1 }
		infantry = { x = 0 y = 2 }
		infantry = { x = 0 y = 3 }
		infantry = { x = 0 y = 4 }
		infantry = { x = 1 y = 0 }
		infantry = { x = 1 y = 1 }
		infantry = { x = 1 y = 2 }
		infantry = { x = 1 y = 3 }
		infantry = { x = 1 y = 4 }
		infantry = { x = 2 y = 0 }
		infantry = { x = 2 y = 1 }
		infantry = { x = 2 y = 2 }
		infantry = { x = 2 y = 3 }
		artillery_brigade = { x = 3 y = 0 }
		artillery_brigade = { x = 3 y = 1 }
		artillery_brigade = { x = 3 y = 2 }
		artillery_brigade = { x = 3 y = 3 }


	}
	support = {
		engineer = { x = 0 y = 0 } 	# (semi-mot) Engineer bn
		recon = { x = 0 y = 1 } 		# Recon bn had 16 L tanks, 10 ACs, 1x mot inf co #Eng and recon removed and they seem rather OP. Could revisit if balance changes
		logistics_company { x = 0 y = 2 } 
		artillery = { x = 0 y = 3 }
	}
}


division_template = {
	name = "Armored-Division"

	regiments = {
		motorized = { x = 0 y = 0 }
	    motorized = { x = 0 y = 1 }
		motorized = { x = 0 y = 2 }
		motorized = { x = 0 y = 3 }
		
		motorized = { x = 1 y = 0 }
		motorized = { x = 1 y = 1 }
		motorized = { x = 1 y = 2 }
		motorized = { x = 1 y = 3 }
	    
		light_armor = { x = 2 y = 0 }
		light_armor = { x = 2 y = 1 }
		light_armor = { x = 2 y = 2 }
		light_armor = { x = 2 y = 3 }
		light_armor = { x = 3 y = 0 }
		light_armor = { x = 3 y = 1 }
		light_armor = { x = 3 y = 2 }
		light_armor = { x = 3 y = 3 }
		light_armor = { x = 4 y = 0 }
		light_armor = { x = 4 y = 1 }
		light_armor = { x = 4 y = 2 }
		light_armor = { x = 4 y = 3 }

	}
	support = {
        engineer = { x = 0 y = 0 }
        recon = { x = 0 y = 1 }
		signal_company { x = 0 y = 2 } 
		logistics_company { x = 0 y = 3 }
	}
}

division_template = {
	name = "Garrison Brigade"

	regiments = {
		infantry = { x = 0 y = 0 }
		infantry = { x = 0 y = 1 }
		infantry = { x = 0 y = 2 }
		infantry = { x = 0 y = 3 }
		infantry = { x = 0 y = 4 }
		infantry = { x = 1 y = 0 }
		infantry = { x = 1 y = 1 }
		infantry = { x = 1 y = 2 }
		infantry = { x = 1 y = 3 }
		infantry = { x = 1 y = 4 }
	}
	support = {
		engineer = { x = 0 y = 0 }
		
	}
	priority = 0
}

##### OOB #####
units = {
	##### Royal South African Army #####
	division= {	
		name = "1. Infantry Division"
		location = 12589 # Capetown
		division_template = "Infantry Division" 
		start_experience_factor = 0.2

	}
	division= {	
		name = "2. Infantry Division"
		location = 10400 # Durbin
		division_template = "Infantry Division" 
		start_experience_factor = 0.2


	}
	
	division= {	
		name = "Eastern Province Cmd."
		location = 4696 # East London
		division_template = "Garrison Brigade"
		start_experience_factor = 0.2

	}
	
	division= {	
		name = "Natal Command"
		location = 1468 # Durbin
		division_template = "Garrison Brigade"
		start_experience_factor = 0.2

	}


	##### No Naval OOB #####
}



##### Starting Production #####
instant_effect = {
	add_equipment_production = {
		equipment = {
			type = infantry_equipment_1
			creator = "SAF"
		}
		requested_factories = 1
		progress = 0.20
		efficiency = 100
	}
	add_equipment_production = {
		equipment = {
			type = anti_air_equipment_1
			creator = "SAF"
		}
		requested_factories = 1
		progress = 0.3
		efficiency = 50
	}		
}