﻿division_template = {
	name = "Pesadijska Divizija"	# Infantry Division	
	# Note: infantry divisions were all at low reserve levels even just prior to Axis 
	#	invasion of 1941
	regiments = {
		infantry = { x = 0 y = 0 }
		infantry = { x = 0 y = 1 }
		infantry = { x = 0 y = 2 }
		infantry = { x = 0 y = 3 }
		infantry = { x = 0 y = 4 }
		infantry = { x = 1 y = 0 }
		infantry = { x = 1 y = 1 }
		infantry = { x = 1 y = 2 }
		infantry = { x = 1 y = 3 }
		infantry = { x = 1 y = 4 }
		infantry = { x = 2 y = 0 }
		infantry = { x = 2 y = 1 }
		infantry = { x = 2 y = 2 }
		infantry = { x = 2 y = 3 }
		artillery_brigade = { x = 3 y = 0 }
		artillery_brigade = { x = 3 y = 1 }
		artillery_brigade = { x = 3 y = 2 }
		artillery_brigade = { x = 3 y = 3 }


	}
		support = {
		engineer = { x = 0 y = 0 }      # includes 1x AC comp, 1x L tank comp
		recon = { x = 0 y = 1 }
		artillery = { x = 0 y = 2 }
	}
}
division_template = {
	name = "Konjička Divizija" 			# Cavalry Division
	# Note: regiments within the brigade were battalion-sized units
	regiments = {
		cavalry = { x = 0 y = 0 }
		cavalry = { x = 0 y = 1 }
		cavalry = { x = 0 y = 2 }
		cavalry = { x = 0 y = 3 }
		cavalry = { x = 0 y = 4 }
	}
}



units = {
	######## LAND UNITS ########
	###### Vojska Kraljevine Jugoslavije ######
	division = {
		name = "Gardijska Pesadijska Div."  			# Peadijska if we get font support
		location = 11586
		division_template = "Pesadijska Divizija"
		start_experience_factor = 0.3
	}
	division = {
		name = "1. 'Cerska' Pesadijska Div."  			# Peadijska if we get font support
		location = 11586
		division_template = "Pesadijska Divizija"
		start_experience_factor = 0.1
		start_equipment_factor = 0.3

	}
	division = {
		name = "19. 'Fontina' Pesadijska Divizija"
		location = 11586
		division_template = "Pesadijska Divizija"
		start_experience_factor = 0.3
		start_equipment_factor = 1

	}

	### Obalnim Armija ###
	division = {
		name = "12. 'Jadranska' Pesadijska Div."  			# Peadijska if we get font support
		location = 3924
		division_template = "Pesadijska Divizija"
		start_experience_factor = 0.1
		start_equipment_factor = 0.3

	}

	### 5. Armija ###
	division = {
		name = "8. 'Krajinska' Pesadijska Div."  			# Peadijska if we get font support
		location = 907
		division_template = "Pesadijska Divizija"
		start_experience_factor = 0.1
		start_equipment_factor = 0.3

	}
	division = {
		name = "9. 'Timocka' Pesadijska Div."  				# Peadijska if we get font support
		location = 11868
		division_template = "Pesadijska Divizija"
		start_experience_factor = 0.1
		start_equipment_factor = 0.3

	}
	division = {
		name = "2. Konjička Divizija"
		location = 11887
		division_template = "Konjička Divizija"
		start_experience_factor = 0.1
		start_equipment_factor = 0.3

	}

	### 6. Armija ###
	division = {
		name = "3. 'Dunavska' Pesadijska Div."  			# Peadijska if we get font support
		location = 3614
		division_template = "Pesadijska Divizija"
		start_experience_factor = 0.1
		start_equipment_factor = 0.3

	}

	#### 1. Grupa Vojska ####
	### 4. Armija ###
	division = {
		name = "27. 'Savaska' Pesadijska Div."  			# Peadijska if we get font support
		location = 11581
		division_template = "Pesadijska Divizija"
		start_experience_factor = 0.1
		start_equipment_factor = 0.3

	}

	### 7. Armija ###
	division = {
		name = "Triglavski Odred"
		location = 3631
		division_template = "Pesadijska Divizija"
		start_experience_factor = 0.3
		start_equipment_factor = 0.7

	}
	division = {
		name = "Risnajaski Odred" 							# Rinajaski if we get font support
		location = 11612
		division_template = "Pesadijska Divizija"
		start_experience_factor = 0.3
		start_equipment_factor = 0.7

	}
	division = {
		name = "1. Konjička Divizija"
		location = 9627
		division_template = "Konjička Divizija"
		start_experience_factor = 0.1
		start_equipment_factor = 0.3

	}

	#### 2. Grupa Vojska ####
	### 1. Armija ###
	division = {
		name = "7. 'Potiska' Pesadijska Div."  				# Peadijska if we get font support
		location = 6643
		division_template = "Pesadijska Divizija"
		start_experience_factor = 0.1
		start_equipment_factor = 0.3

	}
	division = {
		name = "3. Konjička Divizija"
		location = 614
		division_template = "Konjička Divizija"
		start_experience_factor = 0.1
		start_equipment_factor = 0.3

	}

	### 2. Armija ###
	division = {
		name = "10. 'Bosanska' Pesadijska Div."  			# Peadijska if we get font support
		location = 3627
		division_template = "Pesadijska Divizija"
		start_experience_factor = 0.1
		start_equipment_factor = 0.3

	}
	division = {
		name = "17. 'Vrbaska' Pesadijska Div."  			# Peadijska if we get font support
		location = 3623
		division_template = "Pesadijska Divizija"
		start_experience_factor = 0.1
		start_equipment_factor = 0.3

	}

	#### 3. Grupa Vojska ####
	### 3. Armija ###
	division = {
		name = "13. 'Hercegovacka' Pesadijska Div."  		# Peadijska if we get font support
		location = 833
		division_template = "Pesadijska Divizija"
		start_experience_factor = 0.1
		start_equipment_factor = 0.3

	}
	division = {
		name = "15. 'Zetska' Pesadijska Div."  				# Peadijska if we get font support
		location = 6913
		division_template = "Pesadijska Divizija"
		start_experience_factor = 0.1
		start_equipment_factor = 0.3

	}
	division = {
		name = "25. 'Vardarsa' Pesadijska Div."  			# Peadijska if we get font support
		location = 9809
		division_template = "Pesadijska Divizija"
		start_experience_factor = 0.1
		start_equipment_factor = 0.3

	}

	### 3. Teritorijalna Armija ###
	division = {
		name = "5. 'Sumadijska' Pesadijska Div."  			# Peadijska if we get font support
		location = 3833
		division_template = "Pesadijska Divizija"
		start_experience_factor = 0.1
		start_equipment_factor = 0.3

	}
	division = {
		name = "20. 'Bregalnicka' Pesadijska Div."  		# Peadijska if we get font support
		location = 11856
		division_template = "Pesadijska Divizija"
		start_experience_factor = 0.1
		start_equipment_factor = 0.3

	}
	division = {
		name = "22. 'Ibarska' Pesadijska Div."  			# Peadijska if we get font support
		location = 3882
		division_template = "Pesadijska Divizija"
		start_experience_factor = 0.1
		start_equipment_factor = 0.3

	}
				

}  # Neboja if we get font support


###### Vazduhoplovstvo Vojske Kraljevine Jugoslavije (VVKJ) ######
air_wings = {
	107 = {
		# 1. Vazduhoplovna Brigada -- Dewotine D.1/9/27 fighters
		fighter_equipment_0 = {
			owner = "YUG" 
			amount = 48
		}
	}
	104 = {
		# 2. Vazduhoplovna Brigada  -- Hawker Fury and Ikarus IK-2 fighters
		fighter_equipment_0 = {
			owner = "YUG" 
			amount = 48
		}
	}
}

### Starting Production ###
instant_effect = {
	add_equipment_production = {
		equipment = {
			type = infantry_equipment_1
			creator = "YUG"
		}
		requested_factories = 1
		progress = 0.37
		efficiency = 100
	}
	add_equipment_production = {
		equipment = {
			type = support_equipment_1
			creator = "YUG"
		}
		requested_factories = 1
		progress = 0.76
		efficiency = 100
	}
	
}